.. masuperdoc documentation master file, created by
   sphinx-quickstart on Sun Feb 28 01:26:22 2021.
   You can adapt this file completely to your liking, but it should at least
   contain the root `toctree` directive.

Welcome to masuperdoc's documentation!
======================================

.. toctree::
   :maxdepth: 2
   :caption: Contents:



Indices and tables
==================

* :ref:`genindex`
* :ref:`modindex`
* :ref:`search`
